{
  "aa": "aar",
  "ab": "abk",
  "af": "afr",
  "ak": "aka",
  "sq": "alb",
  "am": "amh",
  "ar": "ara",
  "an": "arg",
  "as": "asm",
  "av": "ava",
  "ae": "ave",
  "ay": "aym",
  "az": "aze",
  "ba": "bak",
  "bm": "bam",
  "eu": "baq",
  "be": "bel",
  "bn": "ben",
  "bh": "bih",
  "bi": "bis",
  "bo": "tib",
  "bs": "bos",
  "br": "bre",
  "bg": "bul",
  "ca": "cat",
  "ch": "cha",
  "ce": "che",
  "zh": "chi",
  "cu": "chu",
  "cv": "chv",
  "kw": "cor",
  "co": "cos",
  "cr": "cre",
  "cy": "wel",
  "cs": "cze",
  "da": "dan",
  "dv": "div",
  "dz": "dzo",
  "en": "eng",
  "eo": "epo",
  "et": "est",
  "ee": "ewe",
  "fo": "fao",
  "fj": "fij",
  "fi": "fin",
  "fr": "fre",
  "fy": "fry",
  "ff": "ful",
  "de": "ger",
  "gd": "gla",
  "ga": "gle",
  "gl": "glg",
  "gv": "glv",
  "el": "gre",
  "gn": "grn",
  "gu": "guj",
  "ht": "hat",
  "ha": "hau",
  "he": "heb",
  "hz": "her",
  "hi": "hin",
  "ho": "hmo",
  "hr": "hrv",
  "hu": "hun",
  "hy": "arm",
  "ig": "ibo",
  "io": "ido",
  "ii": "iii",
  "iu": "iku",
  "ie": "ile",
  "ia": "ina",
  "id": "ind",
  "ik": "ipk",
  "is": "ice",
  "it": "ita",
  "jv": "jav",
  "ja": "jpn",
  "kl": "kal",
  "kn": "kan",
  "ks": "kas",
  "ka": "geo",
  "kr": "kau",
  "kk": "kaz",
  "km": "khm",
  "ki": "kik",
  "rw": "kin",
  "ky": "kir",
  "kv": "kom",
  "kg": "kon",
  "ko": "kor",
  "kj": "kua",
  "ku": "kur",
  "lo": "lao",
  "la": "lat",
  "lv": "lav",
  "li": "lim",
  "ln": "lin",
  "lt": "lit",
  "lb": "ltz",
  "lu": "lub",
  "lg": "lug",
  "mk": "mac",
  "mh": "mah",
  "ml": "mal",
  "mr": "mar",
  "ms": "may",
  "mg": "mlg",
  "mt": "mlt",
  "mn": "mon",
  "mi": "mao",
  "my": "bur",
  "na": "nau",
  "nv": "nav",
  "nr": "nbl",
  "nd": "nde",
  "ng": "ndo",
  "ne": "nep",
  "nl": "dut",
  "nn": "nno",
  "nb": "nob",
  "no": "nor",
  "ny": "nya",
  "oc": "oci",
  "oj": "oji",
  "or": "ori",
  "om": "orm",
  "os": "oss",
  "pa": "pan",
  "fa": "per",
  "pi": "pli",
  "pl": "pol",
  "pt": "por",
  "ps": "pus",
  "qu": "que",
  "rm": "roh",
  "ro": "rom",
  "rn": "run",
  "ru": "rus",
  "sg": "sag",
  "sa": "san",
  "si": "sin",
  "sk": "slo",
  "sl": "slv",
  "se": "sme",
  "sm": "smo",
  "sn": "sna",
  "sd": "snd",
  "so": "som",
  "st": "sot",
  "es": "spa",
  "sc": "srd",
  "sr": "srp",
  "ss": "ssw",
  "su": "sun",
  "sw": "swa",
  "sv": "swe",
  "ty": "tah",
  "ta": "tam",
  "tt": "tat",
  "te": "tel",
  "tg": "tgk",
  "tl": "tgl",
  "th": "tha",
  "ti": "tir",
  "to": "ton",
  "tn": "tsn",
  "ts": "tso",
  "tk": "tuk",
  "tr": "tur",
  "tw": "twi",
  "ug": "uig",
  "uk": "ukr",
  "ur": "urd",
  "uz": "uzb",
  "ve": "ven",
  "vi": "vie",
  "vo": "vol",
  "wa": "wln",
  "wo": "wol",
  "xh": "xho",
  "yi": "yid",
  "yo": "yor",
  "za": "zha",
  "zu": "zul"
}